<svg width="10" height="11" viewBox="0 0 10 11" fill="none" xmlns="http://www.w3.org/2000/svg">
<path d="M7.0835 1.74996H8.75016C8.86067 1.74996 8.96665 1.79386 9.04479 1.872C9.12293 1.95014 9.16683 2.05612 9.16683 2.16663V8.83329C9.16683 8.9438 9.12293 9.04978 9.04479 9.12792C8.96665 9.20606 8.86067 9.24996 8.75016 9.24996H1.25016C1.13966 9.24996 1.03368 9.20606 0.955535 9.12792C0.877395 9.04978 0.833496 8.9438 0.833496 8.83329V2.16663C0.833496 2.05612 0.877395 1.95014 0.955535 1.872C1.03368 1.79386 1.13966 1.74996 1.25016 1.74996H2.91683V0.916626H3.75016V1.74996H6.25016V0.916626H7.0835V1.74996ZM1.66683 4.24996V8.41663H8.3335V4.24996H1.66683ZM2.50016 5.08329H3.3335V5.91663H2.50016V5.08329ZM4.5835 5.08329H5.41683V5.91663H4.5835V5.08329ZM6.66683 5.08329H7.50016V5.91663H6.66683V5.08329Z" fill="#363853"/>
</svg>
