<svg width="57" height="56" viewBox="0 0 57 56" fill="none" xmlns="http://www.w3.org/2000/svg">
<path d="M28.5023 10.7969H28.4953L8.63281 48.9924L8.63806 48.9976H48.3596L48.3631 48.9924L28.5023 10.7969ZM26.5301 20.9976H30.4676V36.7476H26.5301V20.9976ZM28.4988 45.4976C27.9796 45.4976 27.4721 45.3437 27.0404 45.0552C26.6088 44.7668 26.2723 44.3568 26.0736 43.8772C25.8749 43.3975 25.823 42.8697 25.9243 42.3605C26.0255 41.8513 26.2755 41.3836 26.6427 41.0165C27.0098 40.6494 27.4775 40.3994 27.9867 40.2981C28.4959 40.1968 29.0237 40.2488 29.5034 40.4474C29.983 40.6461 30.393 40.9826 30.6814 41.4143C30.9699 41.8459 31.1238 42.3535 31.1238 42.8726C31.1238 43.5688 30.8472 44.2365 30.355 44.7288C29.8627 45.2211 29.195 45.4976 28.4988 45.4976Z" fill="#BE1919"/>
<path d="M51.2493 52.4987H5.7493C5.44877 52.4985 5.15333 52.421 4.89145 52.2736C4.62957 52.1261 4.41007 51.9137 4.25411 51.6568C4.09814 51.3999 4.01096 51.1072 4.00097 50.8068C3.99097 50.5065 4.0585 50.2086 4.19705 49.9419L26.9471 6.1919C27.0949 5.90794 27.3178 5.66997 27.5915 5.50389C27.8652 5.33782 28.1792 5.25 28.4993 5.25C28.8194 5.25 29.1334 5.33782 29.4071 5.50389C29.6808 5.66997 29.9037 5.90794 30.0516 6.1919L52.8016 49.9419C52.9401 50.2086 53.0076 50.5065 52.9976 50.8068C52.9876 51.1072 52.9005 51.3999 52.7445 51.6568C52.5885 51.9137 52.369 52.1261 52.1072 52.2736C51.8453 52.421 51.5498 52.4985 51.2493 52.4987ZM8.6368 48.9987H48.3618L48.3636 48.9934L28.5028 10.7962H28.4958L8.6333 48.9934L8.6368 48.9987Z" fill="#BE1919"/>
</svg>
