<svg width="26" height="25" viewBox="0 0 26 25" fill="none" xmlns="http://www.w3.org/2000/svg">
<path d="M17.492 19.5127C17.992 19.5127 18.4808 19.661 18.8965 19.9388C19.3122 20.2165 19.6362 20.6113 19.8276 21.0733C20.0189 21.5352 20.069 22.0435 19.9714 22.5339C19.8739 23.0243 19.6331 23.4747 19.2796 23.8283C18.926 24.1818 18.4756 24.4226 17.9852 24.5201C17.4948 24.6177 16.9865 24.5676 16.5246 24.3763C16.0627 24.1849 15.6678 23.8609 15.3901 23.4452C15.1123 23.0295 14.964 22.5407 14.964 22.0407C14.964 21.7087 15.0294 21.38 15.1564 21.0733C15.2835 20.7666 15.4697 20.4879 15.7045 20.2531C15.9392 20.0184 16.2179 19.8322 16.5246 19.7051C16.8313 19.5781 17.16 19.5127 17.492 19.5127V19.5127ZM17.492 23.4457C17.7689 23.4457 18.0396 23.3636 18.2698 23.2097C18.5001 23.0559 18.6795 22.8373 18.7855 22.5815C18.8914 22.3256 18.9191 22.0442 18.8651 21.7726C18.8111 21.501 18.6778 21.2515 18.482 21.0558C18.2862 20.86 18.0367 20.7266 17.7651 20.6726C17.4936 20.6186 17.2121 20.6463 16.9563 20.7523C16.7004 20.8582 16.4818 21.0377 16.328 21.2679C16.1741 21.4981 16.092 21.7688 16.092 22.0457C16.092 22.417 16.2395 22.7731 16.5021 23.0356C16.7646 23.2982 17.1207 23.4457 17.492 23.4457Z" fill="#7987A1" stroke="#7887A1" stroke-width="0.5" stroke-miterlimit="10"/>
<path d="M6.81599 19.5127C7.31598 19.5127 7.80474 19.661 8.22047 19.9388C8.6362 20.2165 8.96022 20.6113 9.15156 21.0733C9.3429 21.5352 9.39296 22.0435 9.29542 22.5339C9.19788 23.0243 8.9571 23.4747 8.60355 23.8283C8.25001 24.1818 7.79957 24.4226 7.30918 24.5201C6.8188 24.6177 6.31051 24.5676 5.84858 24.3763C5.38665 24.1849 4.99181 23.8609 4.71403 23.4452C4.43625 23.0295 4.288 22.5407 4.288 22.0407C4.288 21.3702 4.55433 20.7272 5.02842 20.2531C5.50251 19.7791 6.14552 19.5127 6.81599 19.5127ZM6.81599 23.4457C7.09288 23.4457 7.36356 23.3636 7.59379 23.2097C7.82402 23.0559 8.00345 22.8373 8.10941 22.5815C8.21538 22.3256 8.24311 22.0442 8.1891 21.7726C8.13508 21.501 8.00174 21.2515 7.80595 21.0558C7.61015 20.86 7.36069 20.7266 7.08912 20.6726C6.81755 20.6186 6.53607 20.6463 6.28025 20.7523C6.02443 20.8582 5.80576 21.0377 5.65193 21.2679C5.49809 21.4981 5.41599 21.7688 5.41599 22.0457C5.41599 22.417 5.56351 22.7731 5.82606 23.0356C6.08861 23.2982 6.44468 23.4457 6.81599 23.4457Z" fill="#7987A1" stroke="#7887A1" stroke-width="0.5" stroke-miterlimit="10"/>
<path d="M1.11704 4.765C1.23372 4.63704 1.3937 4.55688 1.56604 4.54L19.851 4.287L20.357 2.742C20.5309 2.23791 20.8564 1.79992 21.2889 1.48806C21.7215 1.17619 22.2398 1.00572 22.773 1H24.655C24.7288 1 24.8019 1.01454 24.8701 1.04278C24.9383 1.07102 25.0002 1.11242 25.0524 1.16461C25.1046 1.21679 25.146 1.27875 25.1743 1.34693C25.2025 1.41512 25.217 1.4882 25.217 1.562C25.217 1.6358 25.2025 1.70888 25.1743 1.77707C25.146 1.84525 25.1046 1.90721 25.0524 1.95939C25.0002 2.01158 24.9383 2.05298 24.8701 2.08122C24.8019 2.10946 24.7288 2.124 24.655 2.124H22.773C22.4749 2.13068 22.1859 2.22845 21.9449 2.40417C21.704 2.57989 21.5225 2.82515 21.425 3.107L17.857 13.867L18.138 14.513C18.2922 14.9113 18.3496 15.3406 18.3057 15.7654C18.2617 16.1903 18.1175 16.5987 17.885 16.957C17.6547 17.3087 17.3428 17.5996 16.976 17.805C16.6092 18.0104 16.1983 18.1243 15.778 18.137H4.84904C4.69999 18.137 4.55704 18.0778 4.45165 17.9724C4.34625 17.867 4.28704 17.7241 4.28704 17.575C4.28704 17.4259 4.34625 17.283 4.45165 17.1776C4.55704 17.0722 4.69999 17.013 4.84904 17.013H15.778C16.0151 17.0071 16.2471 16.9424 16.453 16.8248C16.659 16.7071 16.8325 16.5402 16.958 16.339C17.0823 16.1397 17.1595 15.9147 17.1837 15.6812C17.208 15.4476 17.1787 15.2116 17.098 14.991L16.873 14.485L5.04604 13.249C4.41198 13.1792 3.81504 12.9149 3.33717 12.4924C2.8593 12.0698 2.52391 11.5098 2.37704 10.889L1.02904 5.242C0.999819 5.16187 0.992569 5.07538 1.00804 4.99151C1.02352 4.90763 1.06115 4.82943 1.11704 4.765V4.765ZM3.47704 10.636C3.56585 11.0349 3.78027 11.3948 4.08878 11.6628C4.39729 11.9308 4.78364 12.0928 5.19104 12.125L16.873 13.333L19.486 5.411L2.26504 5.664L3.47704 10.636Z" fill="#7987A1" stroke="#7887A1" stroke-width="0.5" stroke-miterlimit="10"/>
</svg>
