<svg width="24" height="24" viewBox="0 0 24 24" fill="none" xmlns="http://www.w3.org/2000/svg">
<g clip-path="url(#clip0_194_2702)">
<path d="M12 22.8535C12.42 22.8438 12.823 22.6859 13.1378 22.4078C13.4525 22.1296 13.6588 21.7491 13.72 21.3335H10.2134C10.2764 21.7604 10.4923 22.1498 10.8209 22.4294C11.1496 22.709 11.5686 22.8597 12 22.8535Z" fill="black"/>
<path d="M21.6734 18.5531C21.0306 17.98 20.4677 17.323 20.0001 16.5998C19.4896 15.6015 19.1836 14.5113 19.1001 13.3931V10.0998C19.0974 9.69974 19.0617 9.30061 18.9934 8.90644C18.4687 8.80155 17.9644 8.61244 17.5001 8.34644C17.6771 8.91634 17.767 9.50969 17.7668 10.1064V13.3998C17.8485 14.7638 18.2237 16.0941 18.8668 17.2998C19.327 18.0291 19.8732 18.7006 20.4934 19.2998H3.42011C4.04039 18.7006 4.58651 18.0291 5.04678 17.2998C5.68986 16.0941 6.06507 14.7638 6.14678 13.3998V10.0998C6.14327 9.32823 6.29199 8.56357 6.58441 7.84959C6.87683 7.1356 7.30722 6.4863 7.85092 5.93888C8.39463 5.39146 9.04098 4.95666 9.75296 4.65938C10.4649 4.3621 11.2286 4.20818 12.0001 4.20644C13.1293 4.20734 14.2331 4.54127 15.1734 5.16644C15.0698 4.78576 15.0116 4.39414 15.0001 3.99977V3.57977C14.304 3.23735 13.5562 3.0121 12.7868 2.91311V2.07311C12.7868 1.83706 12.693 1.61069 12.5261 1.44378C12.3592 1.27687 12.1328 1.18311 11.8968 1.18311C11.6607 1.18311 11.4344 1.27687 11.2675 1.44378C11.1005 1.61069 11.0068 1.83706 11.0068 2.07311V2.94644C9.28393 3.18947 7.70716 4.0476 6.56759 5.36239C5.42803 6.67719 4.8026 8.35986 4.80678 10.0998V13.3931C4.72328 14.5113 4.4173 15.6015 3.90678 16.5998C3.44737 17.3213 2.89358 17.9783 2.26011 18.5531C2.189 18.6156 2.13201 18.6925 2.09293 18.7787C2.05384 18.8649 2.03357 18.9585 2.03345 19.0531V19.9598C2.03345 20.1366 2.10369 20.3062 2.22871 20.4312C2.35373 20.5562 2.5233 20.6264 2.70011 20.6264H21.2334C21.4103 20.6264 21.5798 20.5562 21.7049 20.4312C21.8299 20.3062 21.9001 20.1366 21.9001 19.9598V19.0531C21.9 18.9585 21.8797 18.8649 21.8406 18.7787C21.8016 18.6925 21.7446 18.6156 21.6734 18.5531Z" fill="black"/>
<path d="M20.0001 7.33317C21.841 7.33317 23.3334 5.84079 23.3334 3.99984C23.3334 2.15889 21.841 0.666504 20.0001 0.666504C18.1591 0.666504 16.6667 2.15889 16.6667 3.99984C16.6667 5.84079 18.1591 7.33317 20.0001 7.33317Z" fill="#D30139"/>
</g>
<defs>
<clipPath id="clip0_194_2702">
<rect width="24" height="24" fill="white"/>
</clipPath>
</defs>
</svg>
